%YAML 1.1
%TAG !u! tag:unity3d.com,2011:
--- !u!1045 &1
EditorBuildSettings:
  m_ObjectHideFlags: 0
  serializedVersion: 2
  m_Scenes:
  - enabled: 1
    path: Assets/Scenes/GLA_WebConfigurator.unity
    guid: e31bcc236844b494b818ce54605d0459
  m_configObjects: {}
